results/spi_rx.vcd
$date
	Sun Jun 29 21:14:42 2025
$end

$version
	Synopsys VCS version T-2022.06_Full64
$end

$timescale
	1ps
$end

$comment Csum: 1 7c8df1bebce9a048 $end


$scope module spi_rx_tb $end
$var reg 1 ! clk $end
$var reg 1 " reset_n $end
$var reg 1 # sck $end
$var reg 1 $ cs_n $end
$var reg 1 % mosi $end
$var wire 8 & rx_data [7:0] $end
$var wire 1 ' rx_valid $end

$scope task spi_send_byte $end
$var reg 8 ( data [7:0] $end
$var integer 32 ) i $end
$upscope $end


$scope module uut $end
$var wire 1 * clk $end
$var wire 1 + reset_n $end
$var wire 1 , sck $end
$var wire 1 - cs_n $end
$var wire 1 . mosi $end
$var wire 8 & rx_data [7:0] $end
$var wire 1 ' rx_valid $end
$var wire 1 / cts0 $end
$var wire 1 0 sck_sync1 $end
$var wire 1 1 cs_sync1 $end
$var wire 1 2 N32 $end
$var wire 1 3 N33 $end
$var wire 1 4 N34 $end
$var wire 1 5 N38 $end
$var wire 1 6 net59 $end
$var wire 1 7 net65 $end
$var wire 1 8 n14 $end
$var wire 1 9 n15 $end
$var wire 1 : n16 $end
$var wire 1 ; n17 $end
$var wire 1 < n18 $end
$var wire 1 = CTS_ZCTSNET_0 $end
$var wire 1 > n21 $end
$var wire 1 ? n24 $end
$var wire 1 @ n25 $end
$var wire 1 A n26 $end
$var wire 1 B n27 $end
$var wire 1 C n28 $end
$var wire 1 D n29 $end
$var wire 1 E n30 $end
$var wire 2 F state [1:0] $end
$var wire 3 G bit_count [2:0] $end
$var wire 7 H shift_reg [6:0] $end
$var wire 1 I SYNOPSYS_UNCONNECTED_1 $end
$var wire 1 J SYNOPSYS_UNCONNECTED_2 $end
$var wire 1 K SYNOPSYS_UNCONNECTED_3 $end
$var wire 1 L SYNOPSYS_UNCONNECTED_4 $end
$var wire 1 M SYNOPSYS_UNCONNECTED_5 $end
$var wire 1 N SYNOPSYS_UNCONNECTED_6 $end
$var wire 1 O SYNOPSYS_UNCONNECTED_7 $end
$var wire 1 P SYNOPSYS_UNCONNECTED_8 $end
$var wire 1 Q SYNOPSYS_UNCONNECTED_9 $end
$var wire 1 R SYNOPSYS_UNCONNECTED_10 $end
$var wire 1 S SYNOPSYS_UNCONNECTED_11 $end
$var wire 1 T SYNOPSYS_UNCONNECTED_12 $end
$var wire 1 U SYNOPSYS_UNCONNECTED_13 $end
$var wire 1 V SYNOPSYS_UNCONNECTED_14 $end
$var wire 1 W SYNOPSYS_UNCONNECTED_15 $end
$var wire 1 X SYNOPSYS_UNCONNECTED_16 $end
$var wire 1 Y SYNOPSYS_UNCONNECTED_17 $end
$var wire 1 Z SYNOPSYS_UNCONNECTED_18 $end
$var wire 1 [ SYNOPSYS_UNCONNECTED_19 $end
$var wire 1 \ SYNOPSYS_UNCONNECTED_20 $end
$var wire 1 ] SYNOPSYS_UNCONNECTED_21 $end
$var wire 1 ^ SYNOPSYS_UNCONNECTED_22 $end
$var wire 1 _ SYNOPSYS_UNCONNECTED_23 $end

$scope module clk_gate_bit_count_reg $end
$var wire 1 * CLK $end
$var wire 1 : EN $end
$var wire 1 6 ENCLK $end
$var wire 1 ` TE $end
$var wire 1 / cts0 $end
$var wire 1 a net51 $end
$var wire 1 b SYNOPSYS_UNCONNECTED_1 $end
$upscope $end


$scope module clk_gate_rx_data_r_reg $end
$var wire 1 * CLK $end
$var wire 1 5 EN $end
$var wire 1 7 ENCLK $end
$var wire 1 ` TE $end
$var wire 1 / n2 $end
$var wire 1 c net51 $end
$var wire 1 d SYNOPSYS_UNCONNECTED_1 $end
$upscope $end

$upscope $end

$upscope $end

$enddefinitions $end

#0
$dumpvars
0!
1$
0%
0"
1#
bxxxxxxxx (
bxxxxxxxxxxxxxxxxxxxxxxxxxxxxxxxx )
0*
0+
1,
1-
0.
x'
bxxxxxxxx &
bxx F
bxxx G
bxxxxxxx H
x:
x6
0`
x/
x5
x7
x0
xI
xJ
xD
x2
x=
xK
xL
x8
xE
x9
xB
x3
xM
x4
xN
xO
xP
xQ
xR
xS
xT
xU
xV
xW
xX
xY
xZ
x[
x\
x]
x1
x^
x_
xC
x>
x<
xA
x?
x;
x@
xa
xb
xc
xd
$end
#11
1/
#50
07
06
#59
b00000000 &
b0000000 H
b000 G
#60
0'
0J
00
b00 F
#79
12
#80
1;
#81
1>
#92
0<
#95
0=
#98
1?
#109
05
#134
1]
1\
1[
1Z
1Y
1X
1W
1V
1U
1T
1S
1R
1Q
1P
1O
1N
1M
1B
1E
1L
1K
1D
1I
#146
0A
#148
03
#154
09
#181
04
#189
0C
#192
0^
#199
0c
#208
0:
#254
1d
#262
1_
#266
11
#269
0@
#270
08
#298
0a
#353
1b
#5000
1!
1*
#5011
0/
#10000
0!
0*
#10011
1/
#15000
1!
1*
#15011
0/
#20000
0#
0,
0!
0*
#20011
1/
#25000
1!
1*
#25011
0/
#30000
0!
0*
#30011
1/
#35000
1!
1*
#35011
0/
#40000
1#
1,
0!
0*
#40011
1/
#45000
1!
1*
#45011
0/
#50000
0!
0*
#50011
1/
#55000
1!
1*
#55011
0/
#60000
0#
0,
0!
0*
#60011
1/
#65000
1!
1*
#65011
0/
#70000
0!
0*
#70011
1/
#75000
1!
1*
#75011
0/
#80000
1#
1,
0!
0*
#80011
1/
#85000
1!
1*
#85011
0/
#90000
0!
0*
#90011
1/
#95000
1!
1*
#95011
0/
#100000
1"
1+
0#
0,
0!
0*
#100011
1/
#105000
1!
1*
#105011
0/
#110000
0!
0*
#110011
1/
#115000
1!
1*
#115011
0/
#120000
b10100101 (
0$
0-
1#
1,
0!
0*
#120011
1/
#125000
1!
1*
#125011
0/
#125136
0I
#125182
1^
#125207
10
#125245
01
#125297
1A
#130000
0!
0*
#130011
1/
#135000
1!
1*
#135011
0/
#135136
0D
#135182
1C
#135207
1J
#135214
0A
#135245
0_
#135263
1@
#140000
b00000000000000000000000000000111 )
1%
1.
0#
0,
0!
0*
#140011
1/
#145000
1!
1*
#145011
0/
#145159
1I
#145231
00
#150000
0!
0*
#150011
1/
#155000
1!
1*
#155011
0/
#155159
1D
#155231
0J
#160000
1#
1,
0!
0*
#160011
1/
#165000
1!
1*
#165011
0/
#165136
0I
#165207
10
#165297
1A
#165357
1:
#165406
18
#170000
0!
0*
#170011
1/
#170117
1a
#170170
0b
#175000
1!
1*
#175011
0/
#175059
16
#175107
1=
#175136
0E
0D
#175207
1J
b01 F
#175214
0A
#175243
0O
0K
#175276
0:
#175314
b0000001 H
b001 G
#175341
02
#175393
13
#180000
b00000000000000000000000000000110 )
0%
0.
0#
0,
0!
0*
#180011
1/
#180056
06
#180101
0a
0=
#180155
1b
#185000
1!
1*
#185011
0/
#185159
1I
#185231
00
#190000
0!
0*
#190011
1/
#195000
1!
1*
#195011
0/
#195159
1D
#195231
0J
#200000
1#
1,
0!
0*
#200011
1/
#205000
1!
1*
#205011
0/
#205136
0I
#205207
10
#205297
1A
#205346
1:
#210000
0!
0*
#210011
1/
#210117
1a
#210170
0b
#215000
1!
1*
#215011
0/
#215059
16
#215107
1=
#215136
0D
#215207
1J
#215214
0A
#215243
0P
0M
#215266
1O
1K
#215276
0:
#215314
b0000011 H
b011 G
#215338
b0000010 H
b010 G
#215364
12
#220000
b00000000000000000000000000000101 )
1%
1.
0#
0,
0!
0*
#220011
1/
#220056
06
#220101
0a
0=
#220155
1b
#225000
1!
1*
#225011
0/
#225159
1I
#225231
00
#230000
0!
0*
#230011
1/
#235000
1!
1*
#235011
0/
#235159
1D
#235231
0J
#240000
1#
1,
0!
0*
#240011
1/
#245000
1!
1*
#245011
0/
#245136
0I
#245207
10
#245297
1A
#245346
1:
#250000
0!
0*
#250011
1/
#250117
1a
#250170
0b
#255000
1!
1*
#255011
0/
#255059
16
#255107
1=
#255136
0D
#255207
1J
#255214
0A
#255243
0Q
0O
0K
#255266
1P
#255276
0:
#255314
b0000111 H
b011 G
#255338
b0000101 H
#255341
02
#255344
0>
#255355
1<
#255434
14
#255451
03
#260000
b00000000000000000000000000000100 )
0%
0.
0#
0,
0!
0*
#260011
1/
#260056
06
#260101
0a
0=
#260155
1b
#265000
1!
1*
#265011
0/
#265159
1I
#265231
00
#270000
0!
0*
#270011
1/
#275000
1!
1*
#275011
0/
#275159
1D
#275231
0J
#280000
1#
1,
0!
0*
#280011
1/
#285000
1!
1*
#285011
0/
#285136
0I
#285207
10
#285297
1A
#285346
1:
#290000
0!
0*
#290011
1/
#290117
1a
#290170
0b
#295000
1!
1*
#295011
0/
#295059
16
#295107
1=
#295136
0D
#295207
1J
#295214
0A
#295243
0R
0P
0N
#295266
1Q
1O
1M
1K
#295276
0:
#295314
b0001111 H
b111 G
#295338
b0001010 H
b100 G
#295360
1>
#295364
12
#295371
0<
#300000
b00000000000000000000000000000011 )
0#
0,
0!
0*
#300011
1/
#300056
06
#300101
0a
0=
#300155
1b
#305000
1!
1*
#305011
0/
#305159
1I
#305231
00
#310000
0!
0*
#310011
1/
#315000
1!
1*
#315011
0/
#315159
1D
#315231
0J
#320000
1#
1,
0!
0*
#320011
1/
#325000
1!
1*
#325011
0/
#325136
0I
#325207
10
#325297
1A
#325346
1:
#330000
0!
0*
#330011
1/
#330117
1a
#330170
0b
#335000
1!
1*
#335011
0/
#335059
16
#335107
1=
#335136
0D
#335207
1J
#335214
0A
#335243
0S
0Q
0K
#335266
1R
1P
#335276
0:
#335314
b0011110 H
b101 G
#335338
b0010100 H
#335341
02
#335393
13
#340000
b00000000000000000000000000000010 )
1%
1.
0#
0,
0!
0*
#340011
1/
#340056
06
#340101
0a
0=
#340155
1b
#345000
1!
1*
#345011
0/
#345159
1I
#345231
00
#350000
0!
0*
#350011
1/
#355000
1!
1*
#355011
0/
#355159
1D
#355231
0J
#360000
1#
1,
0!
0*
#360011
1/
#365000
1!
1*
#365011
0/
#365136
0I
#365207
10
#365297
1A
#365346
1:
#370000
0!
0*
#370011
1/
#370117
1a
#370170
0b
#375000
1!
1*
#375011
0/
#375059
16
#375107
1=
#375136
0D
#375207
1J
#375214
0A
#375243
0T
0R
0O
0M
#375266
1S
1Q
1K
#375276
0:
#375314
b0111101 H
b111 G
#375334
0;
#375338
b0101001 H
b110 G
#375364
12
#375365
1;
#380000
b00000000000000000000000000000001 )
0%
0.
0#
0,
0!
0*
#380011
1/
#380056
06
#380101
0a
0=
#380155
1b
#385000
1!
1*
#385011
0/
#385159
1I
#385231
00
#390000
0!
0*
#390011
1/
#395000
1!
1*
#395011
0/
#395159
1D
#395231
0J
#400000
1#
1,
0!
0*
#400011
1/
#405000
1!
1*
#405011
0/
#405136
0I
#405207
10
#405297
1A
#405346
1:
#410000
0!
0*
#410011
1/
#410117
1a
#410170
0b
#415000
1!
1*
#415011
0/
#415059
16
#415107
1=
#415136
0D
#415207
1J
#415214
0A
#415243
0U
0S
0P
0K
#415266
1T
1R
1O
#415276
0:
#415314
b1111011 H
b111 G
#415338
b1010010 H
#415341
02
#415342
0;
#415344
0>
#415355
1<
#415451
03
#415456
04
#420000
b00000000000000000000000000000000 )
1%
1.
0#
0,
0!
0*
#420011
1/
#420056
06
#420101
0a
0=
#420155
1b
#425000
1!
1*
#425011
0/
#425159
1I
#425231
00
#430000
0!
0*
#430011
1/
#435000
1!
1*
#435011
0/
#435159
1D
#435231
0J
#440000
1#
1,
0!
0*
#440011
1/
#445000
1!
1*
#445011
0/
#445136
0I
#445207
10
#445297
1A
#445337
0?
#445346
1:
#445348
15
#445399
0@
#445471
19
#445504
08
#450000
0!
0*
#450011
1/
#450117
1c
1a
#450170
0d
0b
#455000
1!
1*
#455011
0/
#455059
17
16
#455107
1=
#455136
0B
0L
0D
#455159
1E
#455195
0]
0[
0X
0V
#455207
1'
1J
0A
b11 F
#455227
18
#455231
b10 F
#455243
0T
0Q
0O
#455250
1?
#455261
05
#455266
1U
1S
1P
1N
1M
1K
b10100101 &
#455269
0:
#455299
1@
#455314
09
b1110111 H
#455338
b0100101 H
b000 G
#455359
1;
#455360
1>
#455363
08
#455371
0<
#460000
b11111111111111111111111111111111 )
1$
1-
0%
0.
0#
0,
0!
0*
#460011
1/
#460056
07
06
#460101
0c
0a
0=
#460155
1d
1b
#465000
1!
1*
#465011
0/
#465159
1B
1L
1I
#465177
0^
#465231
0'
00
b00 F
#465242
11
#465250
12
#470000
0!
0*
#470011
1/
#475000
1!
1*
#475011
0/
#475159
1D
#475177
0C
#475231
0J
#475242
1_
#475257
0@
#480000
1#
1,
0!
0*
#480011
1/
#485000
1!
1*
#485011
0/
#485136
0I
#485207
10
#485297
1A
#490000
0!
0*
#490011
1/
#495000
1!
1*
#495011
0/
#495136
0D
#495207
1J
#495214
0A
#500000
0#
0,
0!
0*
#500011
1/
#505000
1!
1*
#505011
0/
#505159
1I
#505231
00
#510000
0!
0*
#510011
1/
#515000
1!
1*
#515011
0/
#515159
1D
#515231
0J
#520000
1#
1,
0!
0*
#520011
1/
#525000
1!
1*
#525011
0/
#525136
0I
#525207
10
#525297
1A
#530000
b00010010 (
0$
0-
0!
0*
#530011
1/
#535000
1!
1*
#535011
0/
#535136
0D
#535182
1^
#535207
1J
#535214
0A
#535245
01
#540000
0#
0,
0!
0*
#540011
1/
#545000
1!
1*
#545011
0/
#545159
1I
#545182
1C
#545231
00
#545245
0_
#545263
1@
#550000
b00000000000000000000000000000111 )
0!
0*
#550011
1/
#555000
1!
1*
#555011
0/
#555159
1D
#555231
0J
#560000
1#
1,
0!
0*
#560011
1/
#565000
1!
1*
#565011
0/
#565136
0I
#565207
10
#565297
1A
#565357
1:
#565406
18
#570000
0!
0*
#570011
1/
#570117
1a
#570170
0b
#575000
1!
1*
#575011
0/
#575059
16
#575107
1=
#575136
0E
0D
#575207
1J
b01 F
#575214
0A
#575243
0U
0R
0P
0K
#575266
1T
1Q
1O
#575276
0:
#575314
b1101111 H
b001 G
#575338
b1001010 H
#575341
02
#575393
13
#580000
0#
0,
0!
0*
#580011
1/
#580056
06
#580101
0a
0=
#580155
1b
#585000
1!
1*
#585011
0/
#585159
1I
#585231
00
#590000
b00000000000000000000000000000110 )
0!
0*
#590011
1/
#595000
1!
1*
#595011
0/
#595159
1D
#595231
0J
#600000
1#
1,
0!
0*
#600011
1/
#605000
1!
1*
#605011
0/
#605136
0I
#605207
10
#605297
1A
#605346
1:
#610000
0!
0*
#610011
1/
#610117
1a
#610170
0b
#615000
1!
1*
#615011
0/
#615059
16
#615107
1=
#615136
0D
#615207
1J
#615214
0A
#615243
0S
0Q
0M
#615266
1U
1R
1P
1K
#615276
0:
#615314
b1011110 H
b011 G
#615338
b0010100 H
b010 G
#615364
12
#620000
0#
0,
0!
0*
#620011
1/
#620056
06
#620101
0a
0=
#620155
1b
#625000
1!
1*
#625011
0/
#625159
1I
#625231
00
#630000
b00000000000000000000000000000101 )
0!
0*
#630011
1/
#635000
1!
1*
#635011
0/
#635159
1D
#635231
0J
#640000
1#
1,
0!
0*
#640011
1/
#645000
1!
1*
#645011
0/
#645136
0I
#645207
10
#645297
1A
#645346
1:
#650000
0!
0*
#650011
1/
#650117
1a
#650170
0b
#655000
1!
1*
#655011
0/
#655059
16
#655107
1=
#655136
0D
#655207
1J
#655214
0A
#655243
0T
0R
0K
#655266
1S
1Q
#655276
0:
#655314
b0111100 H
b011 G
#655338
b0101000 H
#655341
02
#655344
0>
#655355
1<
#655434
14
#655451
03
#660000
0#
0,
0!
0*
#660011
1/
#660056
06
#660101
0a
0=
#660155
1b
#665000
1!
1*
#665011
0/
#665159
1I
#665231
00
#670000
b00000000000000000000000000000100 )
1%
1.
0!
0*
#670011
1/
#675000
1!
1*
#675011
0/
#675159
1D
#675231
0J
#680000
1#
1,
0!
0*
#680011
1/
#685000
1!
1*
#685011
0/
#685136
0I
#685207
10
#685297
1A
#685346
1:
#690000
0!
0*
#690011
1/
#690117
1a
#690170
0b
#695000
1!
1*
#695011
0/
#695059
16
#695107
1=
#695136
0D
#695207
1J
#695214
0A
#695243
0U
0S
0O
0N
#695266
1T
1R
1M
1K
#695276
0:
#695314
b1111001 H
b111 G
#695338
b1010001 H
b100 G
#695360
1>
#695364
12
#695371
0<
#700000
0#
0,
0!
0*
#700011
1/
#700056
06
#700101
0a
0=
#700155
1b
#705000
1!
1*
#705011
0/
#705159
1I
#705231
00
#710000
b00000000000000000000000000000011 )
0%
0.
0!
0*
#710011
1/
#715000
1!
1*
#715011
0/
#715159
1D
#715231
0J
#720000
1#
1,
0!
0*
#720011
1/
#725000
1!
1*
#725011
0/
#725136
0I
#725207
10
#725297
1A
#725346
1:
#730000
0!
0*
#730011
1/
#730117
1a
#730170
0b
#735000
1!
1*
#735011
0/
#735059
16
#735107
1=
#735136
0D
#735207
1J
#735214
0A
#735243
0T
0P
0K
#735266
1U
1S
1O
#735276
0:
#735314
b1110011 H
b101 G
#735338
b0100010 H
#735341
02
#735393
13
#740000
0#
0,
0!
0*
#740011
1/
#740056
06
#740101
0a
0=
#740155
1b
#745000
1!
1*
#745011
0/
#745159
1I
#745231
00
#750000
b00000000000000000000000000000010 )
0!
0*
#750011
1/
#755000
1!
1*
#755011
0/
#755159
1D
#755231
0J
#760000
1#
1,
0!
0*
#760011
1/
#765000
1!
1*
#765011
0/
#765136
0I
#765207
10
#765297
1A
#765346
1:
#770000
0!
0*
#770011
1/
#770117
1a
#770170
0b
#775000
1!
1*
#775011
0/
#775059
16
#775107
1=
#775136
0D
#775207
1J
#775214
0A
#775243
0U
0Q
0M
#775266
1T
1P
1K
#775276
0:
#775314
b1100110 H
b111 G
#775334
0;
#775338
b1000100 H
b110 G
#775364
12
#775365
1;
#780000
0#
0,
0!
0*
#780011
1/
#780056
06
#780101
0a
0=
#780155
1b
#785000
1!
1*
#785011
0/
#785159
1I
#785231
00
#790000
b00000000000000000000000000000001 )
1%
1.
0!
0*
#790011
1/
#795000
1!
1*
#795011
0/
#795159
1D
#795231
0J
#800000
1#
1,
0!
0*
#800011
1/
#805000
1!
1*
#805011
0/
#805136
0I
#805207
10
#805297
1A
#805346
1:
#810000
0!
0*
#810011
1/
#810117
1a
#810170
0b
#815000
1!
1*
#815011
0/
#815059
16
#815107
1=
#815136
0D
#815207
1J
#815214
0A
#815243
0R
0O
0K
#815266
1U
1Q
#815276
0:
#815314
b1001101 H
b111 G
#815338
b0001001 H
#815341
02
#815342
0;
#815344
0>
#815355
1<
#815451
03
#815456
04
#820000
0#
0,
0!
0*
#820011
1/
#820056
06
#820101
0a
0=
#820155
1b
#825000
1!
1*
#825011
0/
#825159
1I
#825231
00
#830000
b00000000000000000000000000000000 )
0%
0.
0!
0*
#830011
1/
#835000
1!
1*
#835011
0/
#835159
1D
#835231
0J
#840000
1#
1,
0!
0*
#840011
1/
#845000
1!
1*
#845011
0/
#845136
0I
#845207
10
#845297
1A
#845337
0?
#845346
1:
#845348
15
#845399
0@
#845471
19
#845504
08
#850000
0!
0*
#850011
1/
#850117
1c
1a
#850170
0d
0b
#855000
1!
1*
#855011
0/
#855059
17
16
#855107
1=
#855136
0B
0L
0D
#855159
1E
#855195
0\
0Y
#855207
1'
1J
0A
b11 F
#855218
1]
1[
1X
1V
#855227
18
#855231
b10 F
#855243
0S
0P
#855250
1?
#855261
05
#855266
1R
1O
1N
1M
1K
b10110111 &
#855269
0:
#855290
b00010010 &
#855299
1@
#855314
09
b0011011 H
#855338
b0010010 H
b000 G
#855359
1;
#855360
1>
#855363
08
#855371
0<
#860000
0#
0,
0!
0*
#860011
1/
#860056
07
06
#860101
0c
0a
0=
#860155
1d
1b
#865000
1!
1*
#865011
0/
#865159
1B
1L
1I
#865231
0'
00
b00 F
#865250
12
#870000
b11111111111111111111111111111111 )
1$
1-
0!
0*
#870011
1/
#875000
1!
1*
#875011
0/
#875159
1D
#875177
0^
#875231
0J
#875242
11
#880000
1#
1,
0!
0*
#880011
1/
#885000
1!
1*
#885011
0/
#885136
0I
#885177
0C
#885207
10
#885242
1_
#885257
0@
#885297
1A
#890000
b00110100 (
0$
0-
0!
0*
#890011
1/
#895000
1!
1*
#895011
0/
#895136
0D
#895182
1^
#895207
1J
#895214
0A
#895245
01
#900000
0#
0,
0!
0*
#900011
1/
#905000
1!
1*
#905011
0/
#905159
1I
#905182
1C
#905231
00
#905245
0_
#905263
1@
#910000
b00000000000000000000000000000111 )
0!
0*
#910011
1/
#915000
1!
1*
#915011
0/
#915159
1D
#915231
0J
#920000
1#
1,
0!
0*
#920011
1/
#925000
1!
1*
#925011
0/
#925136
0I
#925207
10
#925297
1A
#925357
1:
#925406
18
#930000
0!
0*
#930011
1/
#930117
1a
#930170
0b
#935000
1!
1*
#935011
0/
#935059
16
#935107
1=
#935136
0E
0D
#935207
1J
b01 F
#935214
0A
#935243
0T
0Q
0K
#935266
1S
1P
#935276
0:
#935314
b0110110 H
b001 G
#935338
b0100100 H
#935341
02
#935393
13
#940000
0#
0,
0!
0*
#940011
1/
#940056
06
#940101
0a
0=
#940155
1b
#945000
1!
1*
#945011
0/
#945159
1I
#945231
00
#950000
b00000000000000000000000000000110 )
0!
0*
#950011
1/
#955000
1!
1*
#955011
0/
#955159
1D
#955231
0J
#960000
1#
1,
0!
0*
#960011
1/
#965000
1!
1*
#965011
0/
#965136
0I
#965207
10
#965297
1A
#965346
1:
#970000
0!
0*
#970011
1/
#970117
1a
#970170
0b
#975000
1!
1*
#975011
0/
#975059
16
#975107
1=
#975136
0D
#975207
1J
#975214
0A
#975243
0U
0R
0M
#975266
1T
1Q
1K
#975276
0:
#975314
b1101100 H
b011 G
#975338
b1001000 H
b010 G
#975364
12
#980000
0#
0,
0!
0*
#980011
1/
#980056
06
#980101
0a
0=
#980155
1b
#985000
1!
1*
#985011
0/
#985159
1I
#985231
00
#990000
b00000000000000000000000000000101 )
1%
1.
0!
0*
#990011
1/
#995000
1!
1*
#995011
0/
#995159
1D
#995231
0J
#1000000
1#
1,
0!
0*
#1000011
1/
#1005000
1!
1*
#1005011
0/
#1005136
0I
#1005207
10
#1005297
1A
#1005346
1:
#1010000
0!
0*
#1010011
1/
#1010117
1a
#1010170
0b
#1015000
1!
1*
#1015011
0/
#1015059
16
#1015107
1=
#1015136
0D
#1015207
1J
#1015214
0A
#1015243
0S
0O
0K
#1015266
1U
1R
#1015276
0:
#1015314
b1011001 H
b011 G
#1015338
b0010001 H
#1015341
02
#1015344
0>
#1015355
1<
#1015434
14
#1015451
03
#1020000
0#
0,
0!
0*
#1020011
1/
#1020056
06
#1020101
0a
0=
#1020155
1b
#1025000
1!
1*
#1025011
0/
#1025159
1I
#1025231
00
#1030000
b00000000000000000000000000000100 )
0!
0*
#1030011
1/
#1035000
1!
1*
#1035011
0/
#1035159
1D
#1035231
0J
#1040000
1#
1,
0!
0*
#1040011
1/
#1045000
1!
1*
#1045011
0/
#1045136
0I
#1045207
10
#1045297
1A
#1045346
1:
#1050000
0!
0*
#1050011
1/
#1050117
1a
#1050170
0b
#1055000
1!
1*
#1055011
0/
#1055059
16
#1055107
1=
#1055136
0D
#1055207
1J
#1055214
0A
#1055243
0T
0P
0N
#1055266
1S
1M
1K
#1055276
0:
#1055314
b0110011 H
b111 G
#1055338
b0100011 H
b100 G
#1055360
1>
#1055364
12
#1055371
0<
#1060000
0#
0,
0!
0*
#1060011
1/
#1060056
06
#1060101
0a
0=
#1060155
1b
#1065000
1!
1*
#1065011
0/
#1065159
1I
#1065231
00
#1070000
b00000000000000000000000000000011 )
0%
0.
0!
0*
#1070011
1/
#1075000
1!
1*
#1075011
0/
#1075159
1D
#1075231
0J
#1080000
1#
1,
0!
0*
#1080011
1/
#1085000
1!
1*
#1085011
0/
#1085136
0I
#1085207
10
#1085297
1A
#1085346
1:
#1090000
0!
0*
#1090011
1/
#1090117
1a
#1090170
0b
#1095000
1!
1*
#1095011
0/
#1095059
16
#1095107
1=
#1095136
0D
#1095207
1J
#1095214
0A
#1095243
0U
0Q
0K
#1095266
1T
1O
#1095276
0:
#1095314
b1100111 H
b101 G
#1095338
b1000110 H
#1095341
02
#1095393
13
#1100000
0#
0,
0!
0*
#1100011
1/
#1100056
06
#1100101
0a
0=
#1100155
1b
#1105000
1!
1*
#1105011
0/
#1105159
1I
#1105231
00
#1110000
b00000000000000000000000000000010 )
1%
1.
0!
0*
#1110011
1/
#1115000
1!
1*
#1115011
0/
#1115159
1D
#1115231
0J
#1120000
1#
1,
0!
0*
#1120011
1/
#1125000
1!
1*
#1125011
0/
#1125136
0I
#1125207
10
#1125297
1A
#1125346
1:
#1130000
0!
0*
#1130011
1/
#1130117
1a
#1130170
0b
#1135000
1!
1*
#1135011
0/
#1135059
16
#1135107
1=
#1135136
0D
#1135207
1J
#1135214
0A
#1135243
0R
0O
0M
#1135266
1U
1P
1K
#1135276
0:
#1135314
b1001111 H
b111 G
#1135334
0;
#1135338
b0001101 H
b110 G
#1135364
12
#1135365
1;
#1140000
0#
0,
0!
0*
#1140011
1/
#1140056
06
#1140101
0a
0=
#1140155
1b
#1145000
1!
1*
#1145011
0/
#1145159
1I
#1145231
00
#1150000
b00000000000000000000000000000001 )
0%
0.
0!
0*
#1150011
1/
#1155000
1!
1*
#1155011
0/
#1155159
1D
#1155231
0J
#1160000
1#
1,
0!
0*
#1160011
1/
#1165000
1!
1*
#1165011
0/
#1165136
0I
#1165207
10
#1165297
1A
#1165346
1:
#1170000
0!
0*
#1170011
1/
#1170117
1a
#1170170
0b
#1175000
1!
1*
#1175011
0/
#1175059
16
#1175107
1=
#1175136
0D
#1175207
1J
#1175214
0A
#1175243
0S
0P
0K
#1175266
1Q
1O
#1175276
0:
#1175314
b0011111 H
b111 G
#1175338
b0011010 H
#1175341
02
#1175342
0;
#1175344
0>
#1175355
1<
#1175451
03
#1175456
04
#1180000
0#
0,
0!
0*
#1180011
1/
#1180056
06
#1180101
0a
0=
#1180155
1b
#1185000
1!
1*
#1185011
0/
#1185159
1I
#1185231
00
#1190000
b00000000000000000000000000000000 )
0!
0*
#1190011
1/
#1195000
1!
1*
#1195011
0/
#1195159
1D
#1195231
0J
#1200000
1#
1,
0!
0*
#1200011
1/
#1205000
1!
1*
#1205011
0/
#1205136
0I
#1205207
10
#1205297
1A
#1205337
0?
#1205346
1:
#1205348
15
#1205399
0@
#1205471
19
#1205504
08
#1210000
0!
0*
#1210011
1/
#1210117
1c
1a
#1210170
0d
0b
#1215000
1!
1*
#1215011
0/
#1215059
17
16
#1215107
1=
#1215136
0B
0L
0D
#1215159
1E
#1215195
0[
0X
#1215207
1'
1J
0A
b11 F
#1215218
1\
#1215227
18
#1215231
b10 F
#1215243
0T
0Q
#1215250
1?
#1215261
05
#1215266
1R
1P
1N
1M
1K
b00110110 &
#1215269
0:
#1215290
b00110100 &
#1215299
1@
#1215314
09
b0111110 H
#1215338
b0110100 H
b000 G
#1215359
1;
#1215360
1>
#1215363
08
#1215371
0<
#1220000
0#
0,
0!
0*
#1220011
1/
#1220056
07
06
#1220101
0c
0a
0=
#1220155
1d
1b
#1225000
1!
1*
#1225011
0/
#1225159
1B
1L
1I
#1225231
0'
00
b00 F
#1225250
12
#1230000
b11111111111111111111111111111111 )
1$
1-
0!
0*
#1230011
1/
#1235000
1!
1*
#1235011
0/
#1235159
1D
#1235177
0^
#1235231
0J
#1235242
11
#1240000
1#
1,
0!
0*
#1240011
1/
#1245000
1!
1*
#1245011
0/
#1245136
0I
#1245177
0C
#1245207
10
#1245242
1_
#1245257
0@
#1245297
1A
#1250000
0!
0*
#1250011
1/
#1255000
1!
1*
#1255011
0/
#1255136
0D
#1255207
1J
#1255214
0A
#1260000
0#
0,
0!
0*
#1260011
1/
#1265000
1!
1*
#1265011
0/
#1265159
1I
#1265231
00
#1270000
0!
0*
#1270011
1/
#1275000
1!
1*
#1275011
0/
#1275159
1D
#1275231
0J
#1280000
1#
1,
0!
0*
#1280011
1/
#1285000
1!
1*
#1285011
0/
#1285136
0I
#1285207
10
#1285297
1A
#1290000
0!
0*
#1290011
1/
#1295000
1!
1*
#1295011
0/
#1295136
0D
#1295207
1J
#1295214
0A
#1300000
0#
0,
0!
0*
#1300011
1/
#1305000
1!
1*
#1305011
0/
#1305159
1I
#1305231
00
#1310000
0!
0*
#1310011
1/
#1315000
1!
1*
#1315011
0/
#1315159
1D
#1315231
0J
#1320000
1#
1,
0!
0*
#1320011
1/
#1325000
1!
1*
#1325011
0/
#1325136
0I
#1325207
10
#1325297
1A
#1330000
0!
0*
#1330011
1/
#1335000
1!
1*
#1335011
0/
#1335136
0D
#1335207
1J
#1335214
0A
#1340000
0#
0,
0!
0*
#1340011
1/
#1345000
1!
1*
#1345011
0/
#1345159
1I
#1345231
00
#1350000
0!
0*
#1350011
1/
#1355000
1!
1*
#1355011
0/
#1355159
1D
#1355231
0J
#1360000
1#
1,
0!
0*
#1360011
1/
#1365000
1!
1*
#1365011
0/
#1365136
0I
#1365207
10
#1365297
1A
#1370000
0!
0*
#1370011
1/
#1375000
1!
1*
#1375011
0/
#1375136
0D
#1375207
1J
#1375214
0A
#1380000
0#
0,
0!
0*
#1380011
1/
#1385000
1!
1*
#1385011
0/
#1385159
1I
#1385231
00
#1390000
0!
0*
#1390011
1/
#1395000
1!
1*
#1395011
0/
#1395159
1D
#1395231
0J
#1400000
1#
1,
0!
0*
#1400011
1/
#1405000
1!
1*
#1405011
0/
#1405136
0I
#1405207
10
#1405297
1A
#1410000
0!
0*
#1410011
1/
#1415000
1!
1*
#1415011
0/
#1415136
0D
#1415207
1J
#1415214
0A
#1420000
0#
0,
0!
0*
#1420011
1/
#1425000
1!
1*
#1425011
0/
#1425159
1I
#1425231
00
#1430000
0!
0*
#1430011
1/
#1435000
1!
1*
#1435011
0/
#1435159
1D
#1435231
0J
#1440000
1#
1,
0!
0*
#1440011
1/
#1445000
1!
1*
